INFO:__main__:Running Application with arguments Namespace(_func=<function <lambda> at 0x1e5c0140>, expList=['newExpName'], main_log_level=None, main_verbose=False, minutesPerTask=None, modelName='testModel', programArgs=None, queueLimit=None, redoFailures=False, runLocal=False, simId=1, subcommand='queue', trials='1,7-10,15,11')
INFO:__main__:runLocal is: False
INFO:__main__:[0001] qsub -q serial -l walltime=00:30:00,gres=gscratch -m n -N newExpName-s01-1,7 -j eo -e /global/homes/s/sfendell/mcs/run/testModel/log/newExpName-s01-1,7.err -v mcs_model=testModel,mcs_simid=1,mcs_trials=1,7,mcs_expname=newExpName,mcs_args=-s 1 /global/homes/s/sfendell/ilucmc/coremcs/Runner.py
INFO:__main__:Executing qsub command.
INFO:__main__:[0002] qsub -q serial -l walltime=00:30:00,gres=gscratch -m n -N newExpName-s01-8-9 -j eo -e /global/homes/s/sfendell/mcs/run/testModel/log/newExpName-s01-8-9.err -v mcs_model=testModel,mcs_simid=1,mcs_trials=8-9,mcs_expname=newExpName,mcs_args=-s 1 /global/homes/s/sfendell/ilucmc/coremcs/Runner.py
INFO:__main__:Executing qsub command.
INFO:__main__:[0003] qsub -q serial -l walltime=00:15:00,gres=gscratch -m n -N newExpName-s01-10 -j eo -e /global/homes/s/sfendell/mcs/run/testModel/log/newExpName-s01-10.err -v mcs_model=testModel,mcs_simid=1,mcs_trials=10,mcs_expname=newExpName,mcs_args=-s 1 /global/homes/s/sfendell/ilucmc/coremcs/Runner.py
INFO:__main__:Executing qsub command.
INFO:__main__:[0004] qsub -q serial -l walltime=00:15:00,gres=gscratch -m n -N newExpName-s01-11 -j eo -e /global/homes/s/sfendell/mcs/run/testModel/log/newExpName-s01-11.err -v mcs_model=testModel,mcs_simid=1,mcs_trials=11,mcs_expname=newExpName,mcs_args=-s 1 /global/homes/s/sfendell/ilucmc/coremcs/Runner.py
INFO:__main__:Executing qsub command.
INFO:__main__:[0005] qsub -q serial -l walltime=00:15:00,gres=gscratch -m n -N newExpName-s01-15 -j eo -e /global/homes/s/sfendell/mcs/run/testModel/log/newExpName-s01-15.err -v mcs_model=testModel,mcs_simid=1,mcs_trials=15,mcs_expname=newExpName,mcs_args=-s 1 /global/homes/s/sfendell/ilucmc/coremcs/Runner.py
INFO:__main__:Executing qsub command.
INFO:__main__:runDir is /global/homes/s/sfendell/mcs/run/testModel/sims/s001/000/011/newExpName
INFO:__main__:runDir is /global/homes/s/sfendell/mcs/run/testModel/sims/s001/000/015/newExpName
INFO:__main__:runDir is /global/homes/s/sfendell/mcs/run/testModel/sims/s001/000/010/newExpName
INFO:__main__:runDir is /global/homes/s/sfendell/mcs/run/testModel/sims/s001/000/001/newExpName
INFO:__main__:runDir is /global/homes/s/sfendell/mcs/run/testModel/sims/s001/000/008/newExpName
INFO:__main__:Finished runId 1 with status 0
CRITICAL:__main__:/global/homes/s/sfendell/mcs/run/testModel/bin/testModel.py: exiting with status 0
INFO:__main__:Finished runId 7 with status 0
CRITICAL:__main__:/global/homes/s/sfendell/mcs/run/testModel/bin/testModel.py: exiting with status 0
INFO:__main__:Finished runId 5 with status 0
CRITICAL:__main__:/global/homes/s/sfendell/mcs/run/testModel/bin/testModel.py: exiting with status 0
INFO:__main__:Finished runId 6 with status 0
CRITICAL:__main__:/global/homes/s/sfendell/mcs/run/testModel/bin/testModel.py: exiting with status 0
INFO:__main__:Finished runId 3 with status 0
INFO:__main__:runDir is /global/homes/s/sfendell/mcs/run/testModel/sims/s001/000/009/newExpName
INFO:__main__:Finished runId 4 with status 0
CRITICAL:__main__:/global/homes/s/sfendell/mcs/run/testModel/bin/testModel.py: exiting with status 0
INFO:__main__:Running Application with arguments Namespace(_func=<function _analyze at 0x7f0a230>, convergence=False, expName='newExpName', groups=False, importance=False, limit=-1, main_log_level=None, main_verbose=False, modelName='testModel', plot=False, plotInputs=True, resultName='ilucFactor', simId=1, stats=False, subcommand='analyze')
INFO:coremcs.Analysis:0 parameter values for submodelA
INFO:coremcs.Analysis:Each trial has 0 parameters
INFO:coremcs.Analysis:0 parameter values for submodelB
INFO:coremcs.Analysis:Each trial has 0 parameters
INFO:__main__:Running Application with arguments Namespace(_func=<function _analyze at 0x8cbe230>, convergence=False, expName='newExpName', groups=False, importance=False, limit=-1, main_log_level=None, main_verbose=False, modelName='testModel', plot=False, plotInputs=False, resultName='ilucFactor', simId=1, stats=False, subcommand='analyze')
INFO:__main__:Running Application with arguments Namespace(_func=<function _analyze at 0x3f43230>, convergence=False, expName='newExpName', groups=False, importance=False, limit=-1, main_log_level=None, main_verbose=False, modelName='testModel', plot=False, plotInputs=True, resultName='ilucFactor', simId=1, stats=False, subcommand='analyze')
INFO:coremcs.Analysis:0 parameter values for submodelA
INFO:coremcs.Analysis:Each trial has 0 parameters
INFO:coremcs.Analysis:0 parameter values for submodelB
INFO:coremcs.Analysis:Each trial has 0 parameters
INFO:__main__:Running Application with arguments Namespace(_func=<function _analyze at 0x1a377230>, convergence=False, expName='newExpName', groups=False, importance=False, limit=-1, main_log_level=None, main_verbose=False, modelName='testModel', plot=True, plotInputs=False, resultName='ilucFactor', simId=1, stats=False, subcommand='analyze')
INFO:__main__:Running Application with arguments Namespace(_func=<function _analyze at 0xed86230>, convergence=False, expName='newExpName', groups=False, importance=False, limit=-1, main_log_level=None, main_verbose=False, modelName='testModel', plot=True, plotInputs=False, resultName='ilucFactor', simId=1, stats=False, subcommand='analyze')
INFO:__main__:Running Application with arguments Namespace(_func=<function _analyze at 0x1e7bd230>, convergence=False, expName='newExpName', groups=False, importance=False, limit=-1, main_log_level=None, main_verbose=False, modelName='testModel', plot=True, plotInputs=False, resultName='ilucFactor', simId=1, stats=False, subcommand='analyze')
WARNING:coremcs.Analysis:Note: simulation id=1 indicates -1 trials but there are only 0 results
WARNING:coremcs.Analysis:The following trials failed: SELECT run."runId" AS "run_runId", run."simId" AS "run_simId", run."expId" AS "run_expId", run."trialNum" AS "run_trialNum", run."startTime" AS "run_startTime", run."endTime" AS "run_endTime", run.duration AS run_duration, run."runStatus" AS "run_runStatus", run."appStatus" AS "run_appStatus" 
FROM run JOIN experiment ON experiment."expId" = run."expId" 
WHERE run."runStatus" < :runStatus_1 AND experiment."expName" IN (:expName_1, :expName_2, :expName_3, :expName_4, :expName_5, :expName_6, :expName_7, :expName_8, :expName_9, :expName_10)
INFO:__main__:Running Application with arguments Namespace(_func=<function _analyze at 0x14dd1230>, convergence=False, expName='newExpName', groups=False, importance=False, limit=-1, main_log_level=None, main_verbose=False, modelName='testModel', plot=True, plotInputs=False, resultName='ilucFactor', simId=1, stats=False, subcommand='analyze')
WARNING:coremcs.Analysis:Note: simulation id=1 indicates -1 trials but there are only 0 results
WARNING:coremcs.Analysis:The following trials failed: SELECT run."runId" AS "run_runId", run."simId" AS "run_simId", run."expId" AS "run_expId", run."trialNum" AS "run_trialNum", run."startTime" AS "run_startTime", run."endTime" AS "run_endTime", run.duration AS run_duration, run."runStatus" AS "run_runStatus", run."appStatus" AS "run_appStatus" 
FROM run JOIN experiment ON experiment."expId" = run."expId" 
WHERE run."runStatus" < :runStatus_1 AND experiment."expName" IN (:expName_1, :expName_2, :expName_3, :expName_4, :expName_5, :expName_6, :expName_7, :expName_8, :expName_9, :expName_10)
INFO:coremcs.Analysis:0 parameter values for submodelA
INFO:coremcs.Analysis:0 parameter values for submodelB
INFO:coremcs.Analysis:Each trial has 0 parameters
INFO:__main__:Running Application with arguments Namespace(_func=<function _analyze at 0x17358230>, convergence=False, expName='newExpName', groups=False, importance=False, limit=-1, main_log_level=None, main_verbose=False, modelName='testModel', plot=True, plotInputs=False, resultName='ilucFactor', simId=1, stats=False, subcommand='analyze')
WARNING:coremcs.Analysis:Note: simulation id=1 indicates -1 trials but there are only 0 results
WARNING:coremcs.Analysis:The following trials failed: SELECT run."runId" AS "run_runId", run."simId" AS "run_simId", run."expId" AS "run_expId", run."trialNum" AS "run_trialNum", run."startTime" AS "run_startTime", run."endTime" AS "run_endTime", run.duration AS run_duration, run."runStatus" AS "run_runStatus", run."appStatus" AS "run_appStatus" 
FROM run JOIN experiment ON experiment."expId" = run."expId" 
WHERE run."runStatus" < :runStatus_1 AND experiment."expName" IN (:expName_1, :expName_2, :expName_3, :expName_4, :expName_5, :expName_6, :expName_7, :expName_8, :expName_9, :expName_10)
INFO:coremcs.Analysis:0 parameter values for submodelA
INFO:coremcs.Analysis:0 parameter values for submodelB
INFO:coremcs.Analysis:Each trial has 0 parameters
INFO:__main__:Running Application with arguments Namespace(_func=<function _analyze at 0x2010e230>, convergence=False, expName='newExpName', groups=False, importance=False, limit=-1, main_log_level=None, main_verbose=False, modelName='testModel', plot=True, plotInputs=False, resultName='ilucFactor', simId=1, stats=False, subcommand='analyze')
WARNING:coremcs.Analysis:Note: simulation id=1 indicates -1 trials but there are only 0 results
WARNING:coremcs.Analysis:The following trials failed: SELECT run."runId" AS "run_runId", run."simId" AS "run_simId", run."expId" AS "run_expId", run."trialNum" AS "run_trialNum", run."startTime" AS "run_startTime", run."endTime" AS "run_endTime", run.duration AS run_duration, run."runStatus" AS "run_runStatus", run."appStatus" AS "run_appStatus" 
FROM run JOIN experiment ON experiment."expId" = run."expId" 
WHERE run."runStatus" < :runStatus_1 AND experiment."expName" IN (:expName_1, :expName_2, :expName_3, :expName_4, :expName_5, :expName_6, :expName_7, :expName_8, :expName_9, :expName_10)
INFO:coremcs.Analysis:0 parameter values for submodelA
INFO:coremcs.Analysis:0 parameter values for submodelB
INFO:coremcs.Analysis:Each trial has 0 parameters
INFO:__main__:Running Application with arguments Namespace(_func=<function _analyze at 0xbf45230>, convergence=False, expName='newExpName', groups=False, importance=False, limit=-1, main_log_level=None, main_verbose=False, modelName='testModel', plot=True, plotInputs=False, resultName='ilucFactor', simId=1, stats=False, subcommand='analyze')
WARNING:coremcs.Analysis:Note: simulation id=1 indicates -1 trials but there are only 0 results
WARNING:coremcs.Analysis:The following trials failed: SELECT run."runId" AS "run_runId", run."simId" AS "run_simId", run."expId" AS "run_expId", run."trialNum" AS "run_trialNum", run."startTime" AS "run_startTime", run."endTime" AS "run_endTime", run.duration AS run_duration, run."runStatus" AS "run_runStatus", run."appStatus" AS "run_appStatus" 
FROM run JOIN experiment ON experiment."expId" = run."expId" 
WHERE run."runStatus" < :runStatus_1 AND experiment."expName" IN (:expName_1, :expName_2, :expName_3, :expName_4, :expName_5, :expName_6, :expName_7, :expName_8, :expName_9, :expName_10)
INFO:coremcs.Analysis:0 parameter values for submodelA
INFO:coremcs.Analysis:0 parameter values for submodelB
INFO:coremcs.Analysis:Each trial has 0 parameters
INFO:__main__:Running Application with arguments Namespace(_func=<function _analyze at 0x136ee230>, convergence=False, expName='newExpName', groups=False, importance=False, limit=-1, main_log_level=None, main_verbose=False, modelName='testModel', plot=True, plotInputs=False, resultName='ilucFactor', simId=1, stats=False, subcommand='analyze')
WARNING:coremcs.Analysis:Note: simulation id=1 indicates -1 trials but there are only 0 results
WARNING:coremcs.Analysis:The following trials failed: SELECT run."runId" AS "run_runId", run."simId" AS "run_simId", run."expId" AS "run_expId", run."trialNum" AS "run_trialNum", run."startTime" AS "run_startTime", run."endTime" AS "run_endTime", run.duration AS run_duration, run."runStatus" AS "run_runStatus", run."appStatus" AS "run_appStatus" 
FROM run JOIN experiment ON experiment."expId" = run."expId" 
WHERE run."runStatus" < :runStatus_1 AND experiment."expName" IN (:expName_1, :expName_2, :expName_3, :expName_4, :expName_5, :expName_6, :expName_7, :expName_8, :expName_9, :expName_10)
INFO:coremcs.Analysis:0 parameter values for submodelA
INFO:coremcs.Analysis:0 parameter values for submodelB
INFO:coremcs.Analysis:Each trial has 0 parameters
INFO:__main__:Running Application with arguments Namespace(_func=<function _analyze at 0x168c7230>, convergence=False, expName='newExpName', groups=False, importance=False, limit=-1, main_log_level=None, main_verbose=False, modelName='testModel', plot=True, plotInputs=False, resultName='parameterB', simId=1, stats=False, subcommand='analyze')
WARNING:coremcs.Analysis:Note: simulation id=1 indicates -1 trials but there are only 0 results
WARNING:coremcs.Analysis:The following trials failed: SELECT run."runId" AS "run_runId", run."simId" AS "run_simId", run."expId" AS "run_expId", run."trialNum" AS "run_trialNum", run."startTime" AS "run_startTime", run."endTime" AS "run_endTime", run.duration AS run_duration, run."runStatus" AS "run_runStatus", run."appStatus" AS "run_appStatus" 
FROM run JOIN experiment ON experiment."expId" = run."expId" 
WHERE run."runStatus" < :runStatus_1 AND experiment."expName" IN (:expName_1, :expName_2, :expName_3, :expName_4, :expName_5, :expName_6, :expName_7, :expName_8, :expName_9, :expName_10)
INFO:coremcs.Analysis:0 parameter values for submodelA
INFO:coremcs.Analysis:0 parameter values for submodelB
INFO:coremcs.Analysis:Each trial has 0 parameters
INFO:__main__:Running Application with arguments Namespace(_func=<function _analyze at 0x50e3230>, convergence=False, expName='newExpName', groups=False, importance=False, limit=-1, main_log_level=None, main_verbose=False, modelName='testModel', plot=True, plotInputs=False, resultName='paramB', simId=1, stats=False, subcommand='analyze')
WARNING:coremcs.Analysis:Note: simulation id=1 indicates -1 trials but there are only 0 results
WARNING:coremcs.Analysis:The following trials failed: SELECT run."runId" AS "run_runId", run."simId" AS "run_simId", run."expId" AS "run_expId", run."trialNum" AS "run_trialNum", run."startTime" AS "run_startTime", run."endTime" AS "run_endTime", run.duration AS run_duration, run."runStatus" AS "run_runStatus", run."appStatus" AS "run_appStatus" 
FROM run JOIN experiment ON experiment."expId" = run."expId" 
WHERE run."runStatus" < :runStatus_1 AND experiment."expName" IN (:expName_1, :expName_2, :expName_3, :expName_4, :expName_5, :expName_6, :expName_7, :expName_8, :expName_9, :expName_10)
INFO:coremcs.Analysis:0 parameter values for submodelA
INFO:coremcs.Analysis:0 parameter values for submodelB
INFO:coremcs.Analysis:Each trial has 0 parameters
INFO:__main__:Running Application with arguments Namespace(_func=<function _analyze at 0xc3ea230>, convergence=False, expName='newExpName', groups=False, importance=False, limit=-1, main_log_level=None, main_verbose=False, modelName='testModel', plot=True, plotInputs=False, resultName='param1', simId=1, stats=False, subcommand='analyze')
WARNING:coremcs.Analysis:Note: simulation id=1 indicates -1 trials but there are only 0 results
WARNING:coremcs.Analysis:The following trials failed: SELECT run."runId" AS "run_runId", run."simId" AS "run_simId", run."expId" AS "run_expId", run."trialNum" AS "run_trialNum", run."startTime" AS "run_startTime", run."endTime" AS "run_endTime", run.duration AS run_duration, run."runStatus" AS "run_runStatus", run."appStatus" AS "run_appStatus" 
FROM run JOIN experiment ON experiment."expId" = run."expId" 
WHERE run."runStatus" < :runStatus_1 AND experiment."expName" IN (:expName_1, :expName_2, :expName_3, :expName_4, :expName_5, :expName_6, :expName_7, :expName_8, :expName_9, :expName_10)
INFO:coremcs.Analysis:0 parameter values for submodelA
INFO:coremcs.Analysis:0 parameter values for submodelB
INFO:coremcs.Analysis:Each trial has 0 parameters
INFO:__main__:Running Application with arguments Namespace(_func=<function <lambda> at 0x106f08c0>, clearRunDir=True, main_log_level=None, main_verbose=False, modelName='testModel', subcommand='syncdb')
INFO:__main__:Running Application with arguments Namespace(_func=<function <lambda> at 0x698e8c0>, clearRunDir=True, main_log_level=None, main_verbose=False, modelName='testModel', subcommand='syncdb')
INFO:__main__:Running Application with arguments Namespace(_func=<function <lambda> at 0x1a386668>, clearRunDir=True, main_log_level=None, main_verbose=False, modelName='testModel', subcommand='syncdb')
INFO:__main__:Running Application with arguments Namespace(_func=<function <lambda> at 0x1ff51c08>, description='', main_log_level=None, main_verbose=False, modelName='testModel', simId=None, subcommand='genSimulation', trials=10)
INFO:__main__:Generating 10 trials to DB and to '/global/homes/s/sfendell/mcs/run/testModel/sims/s001', using model testModel
WARNING:__main__:No distroFile or paramFile found in directory /global/homes/s/sfendell/mcs/models/testModel/data/
WARNING:__main__:No distroFile or paramFile found in directory /global/homes/s/sfendell/mcs/models/testModel/data/.svn
WARNING:__main__:No distroFile or paramFile found in directory /global/homes/s/sfendell/mcs/models/testModel/data/.svn/text-base
WARNING:__main__:No distroFile or paramFile found in directory /global/homes/s/sfendell/mcs/models/testModel/data/.svn/prop-base
WARNING:__main__:No distroFile or paramFile found in directory /global/homes/s/sfendell/mcs/models/testModel/data/.svn/props
WARNING:__main__:No distroFile or paramFile found in directory /global/homes/s/sfendell/mcs/models/testModel/data/.svn/tmp
WARNING:__main__:No distroFile or paramFile found in directory /global/homes/s/sfendell/mcs/models/testModel/data/.svn/tmp/text-base
WARNING:__main__:No distroFile or paramFile found in directory /global/homes/s/sfendell/mcs/models/testModel/data/.svn/tmp/prop-base
WARNING:__main__:No distroFile or paramFile found in directory /global/homes/s/sfendell/mcs/models/testModel/data/.svn/tmp/props
WARNING:__main__:No distroFile or paramFile found in directory /global/homes/s/sfendell/mcs/models/testModel/data/submodelA/.svn
WARNING:__main__:No distroFile or paramFile found in directory /global/homes/s/sfendell/mcs/models/testModel/data/submodelA/.svn/text-base
WARNING:__main__:No distroFile or paramFile found in directory /global/homes/s/sfendell/mcs/models/testModel/data/submodelA/.svn/prop-base
WARNING:__main__:No distroFile or paramFile found in directory /global/homes/s/sfendell/mcs/models/testModel/data/submodelA/.svn/props
WARNING:__main__:No distroFile or paramFile found in directory /global/homes/s/sfendell/mcs/models/testModel/data/submodelA/.svn/tmp
WARNING:__main__:No distroFile or paramFile found in directory /global/homes/s/sfendell/mcs/models/testModel/data/submodelA/.svn/tmp/text-base
WARNING:__main__:No distroFile or paramFile found in directory /global/homes/s/sfendell/mcs/models/testModel/data/submodelA/.svn/tmp/prop-base
WARNING:__main__:No distroFile or paramFile found in directory /global/homes/s/sfendell/mcs/models/testModel/data/submodelA/.svn/tmp/props
WARNING:__main__:No distroFile or paramFile found in directory /global/homes/s/sfendell/mcs/models/testModel/data/submodelB/.svn
WARNING:__main__:No distroFile or paramFile found in directory /global/homes/s/sfendell/mcs/models/testModel/data/submodelB/.svn/text-base
WARNING:__main__:No distroFile or paramFile found in directory /global/homes/s/sfendell/mcs/models/testModel/data/submodelB/.svn/prop-base
WARNING:__main__:No distroFile or paramFile found in directory /global/homes/s/sfendell/mcs/models/testModel/data/submodelB/.svn/props
WARNING:__main__:No distroFile or paramFile found in directory /global/homes/s/sfendell/mcs/models/testModel/data/submodelB/.svn/tmp
WARNING:__main__:No distroFile or paramFile found in directory /global/homes/s/sfendell/mcs/models/testModel/data/submodelB/.svn/tmp/text-base
WARNING:__main__:No distroFile or paramFile found in directory /global/homes/s/sfendell/mcs/models/testModel/data/submodelB/.svn/tmp/prop-base
WARNING:__main__:No distroFile or paramFile found in directory /global/homes/s/sfendell/mcs/models/testModel/data/submodelB/.svn/tmp/props
INFO:__main__:Running Application with arguments Namespace(_func=<function <lambda> at 0xe2fe668>, clearRunDir=True, main_log_level=None, main_verbose=False, modelName='testModel', subcommand='syncdb')
INFO:__main__:Running Application with arguments Namespace(_func=<function <lambda> at 0x210d7c08>, description='', main_log_level=None, main_verbose=False, modelName='testModel', simId=None, subcommand='genSimulation', trials=10)
INFO:__main__:Generating 10 trials to DB and to '/global/homes/s/sfendell/mcs/run/testModel/sims/s001', using model testModel
WARNING:__main__:No distroFile or paramFile found in directory /global/homes/s/sfendell/mcs/models/testModel/data/
WARNING:__main__:No distroFile or paramFile found in directory /global/homes/s/sfendell/mcs/models/testModel/data/.svn
WARNING:__main__:No distroFile or paramFile found in directory /global/homes/s/sfendell/mcs/models/testModel/data/.svn/text-base
WARNING:__main__:No distroFile or paramFile found in directory /global/homes/s/sfendell/mcs/models/testModel/data/.svn/prop-base
WARNING:__main__:No distroFile or paramFile found in directory /global/homes/s/sfendell/mcs/models/testModel/data/.svn/props
WARNING:__main__:No distroFile or paramFile found in directory /global/homes/s/sfendell/mcs/models/testModel/data/.svn/tmp
WARNING:__main__:No distroFile or paramFile found in directory /global/homes/s/sfendell/mcs/models/testModel/data/.svn/tmp/text-base
WARNING:__main__:No distroFile or paramFile found in directory /global/homes/s/sfendell/mcs/models/testModel/data/.svn/tmp/prop-base
WARNING:__main__:No distroFile or paramFile found in directory /global/homes/s/sfendell/mcs/models/testModel/data/.svn/tmp/props
WARNING:__main__:No distroFile or paramFile found in directory /global/homes/s/sfendell/mcs/models/testModel/data/submodelA/.svn
WARNING:__main__:No distroFile or paramFile found in directory /global/homes/s/sfendell/mcs/models/testModel/data/submodelA/.svn/text-base
WARNING:__main__:No distroFile or paramFile found in directory /global/homes/s/sfendell/mcs/models/testModel/data/submodelA/.svn/prop-base
WARNING:__main__:No distroFile or paramFile found in directory /global/homes/s/sfendell/mcs/models/testModel/data/submodelA/.svn/props
WARNING:__main__:No distroFile or paramFile found in directory /global/homes/s/sfendell/mcs/models/testModel/data/submodelA/.svn/tmp
WARNING:__main__:No distroFile or paramFile found in directory /global/homes/s/sfendell/mcs/models/testModel/data/submodelA/.svn/tmp/text-base
WARNING:__main__:No distroFile or paramFile found in directory /global/homes/s/sfendell/mcs/models/testModel/data/submodelA/.svn/tmp/prop-base
WARNING:__main__:No distroFile or paramFile found in directory /global/homes/s/sfendell/mcs/models/testModel/data/submodelA/.svn/tmp/props
WARNING:__main__:No distroFile or paramFile found in directory /global/homes/s/sfendell/mcs/models/testModel/data/submodelB/.svn
WARNING:__main__:No distroFile or paramFile found in directory /global/homes/s/sfendell/mcs/models/testModel/data/submodelB/.svn/text-base
WARNING:__main__:No distroFile or paramFile found in directory /global/homes/s/sfendell/mcs/models/testModel/data/submodelB/.svn/prop-base
WARNING:__main__:No distroFile or paramFile found in directory /global/homes/s/sfendell/mcs/models/testModel/data/submodelB/.svn/props
WARNING:__main__:No distroFile or paramFile found in directory /global/homes/s/sfendell/mcs/models/testModel/data/submodelB/.svn/tmp
WARNING:__main__:No distroFile or paramFile found in directory /global/homes/s/sfendell/mcs/models/testModel/data/submodelB/.svn/tmp/text-base
WARNING:__main__:No distroFile or paramFile found in directory /global/homes/s/sfendell/mcs/models/testModel/data/submodelB/.svn/tmp/prop-base
WARNING:__main__:No distroFile or paramFile found in directory /global/homes/s/sfendell/mcs/models/testModel/data/submodelB/.svn/tmp/props
INFO:__main__:Running Application with arguments Namespace(_func=<function <lambda> at 0xba9e668>, clearRunDir=True, main_log_level=None, main_verbose=False, modelName='testModel', subcommand='syncdb')
INFO:__main__:Running Application with arguments Namespace(_func=<function <lambda> at 0x1d332c08>, description='', main_log_level=None, main_verbose=False, modelName='testModel', simId=None, subcommand='genSimulation', trials=10)
INFO:__main__:Generating 10 trials to DB and to '/global/homes/s/sfendell/mcs/run/testModel/sims/s001', using model testModel
WARNING:__main__:No distroFile or paramFile found in directory /global/homes/s/sfendell/mcs/models/testModel/data/
WARNING:__main__:No distroFile or paramFile found in directory /global/homes/s/sfendell/mcs/models/testModel/data/.svn
WARNING:__main__:No distroFile or paramFile found in directory /global/homes/s/sfendell/mcs/models/testModel/data/.svn/text-base
WARNING:__main__:No distroFile or paramFile found in directory /global/homes/s/sfendell/mcs/models/testModel/data/.svn/prop-base
WARNING:__main__:No distroFile or paramFile found in directory /global/homes/s/sfendell/mcs/models/testModel/data/.svn/props
WARNING:__main__:No distroFile or paramFile found in directory /global/homes/s/sfendell/mcs/models/testModel/data/.svn/tmp
WARNING:__main__:No distroFile or paramFile found in directory /global/homes/s/sfendell/mcs/models/testModel/data/.svn/tmp/text-base
WARNING:__main__:No distroFile or paramFile found in directory /global/homes/s/sfendell/mcs/models/testModel/data/.svn/tmp/prop-base
WARNING:__main__:No distroFile or paramFile found in directory /global/homes/s/sfendell/mcs/models/testModel/data/.svn/tmp/props
WARNING:__main__:No distroFile or paramFile found in directory /global/homes/s/sfendell/mcs/models/testModel/data/submodelA/.svn
WARNING:__main__:No distroFile or paramFile found in directory /global/homes/s/sfendell/mcs/models/testModel/data/submodelA/.svn/text-base
WARNING:__main__:No distroFile or paramFile found in directory /global/homes/s/sfendell/mcs/models/testModel/data/submodelA/.svn/prop-base
WARNING:__main__:No distroFile or paramFile found in directory /global/homes/s/sfendell/mcs/models/testModel/data/submodelA/.svn/props
WARNING:__main__:No distroFile or paramFile found in directory /global/homes/s/sfendell/mcs/models/testModel/data/submodelA/.svn/tmp
WARNING:__main__:No distroFile or paramFile found in directory /global/homes/s/sfendell/mcs/models/testModel/data/submodelA/.svn/tmp/text-base
WARNING:__main__:No distroFile or paramFile found in directory /global/homes/s/sfendell/mcs/models/testModel/data/submodelA/.svn/tmp/prop-base
WARNING:__main__:No distroFile or paramFile found in directory /global/homes/s/sfendell/mcs/models/testModel/data/submodelA/.svn/tmp/props
WARNING:__main__:No distroFile or paramFile found in directory /global/homes/s/sfendell/mcs/models/testModel/data/submodelB/.svn
WARNING:__main__:No distroFile or paramFile found in directory /global/homes/s/sfendell/mcs/models/testModel/data/submodelB/.svn/text-base
WARNING:__main__:No distroFile or paramFile found in directory /global/homes/s/sfendell/mcs/models/testModel/data/submodelB/.svn/prop-base
WARNING:__main__:No distroFile or paramFile found in directory /global/homes/s/sfendell/mcs/models/testModel/data/submodelB/.svn/props
WARNING:__main__:No distroFile or paramFile found in directory /global/homes/s/sfendell/mcs/models/testModel/data/submodelB/.svn/tmp
WARNING:__main__:No distroFile or paramFile found in directory /global/homes/s/sfendell/mcs/models/testModel/data/submodelB/.svn/tmp/text-base
WARNING:__main__:No distroFile or paramFile found in directory /global/homes/s/sfendell/mcs/models/testModel/data/submodelB/.svn/tmp/prop-base
WARNING:__main__:No distroFile or paramFile found in directory /global/homes/s/sfendell/mcs/models/testModel/data/submodelB/.svn/tmp/props
INFO:coremcs.Distro:Reading in file /global/homes/s/sfendell/mcs/models/testModel/data/submodelA/modelAdistros.distro
INFO:coremcs.ParameterSet:Suppressing correlations as per config file
INFO:__main__:Generating simulation for model testModel using param and distro files:
   modelAparams.param
  modelAdistros.distro
INFO:coremcs.ParameterSet:genTrials: generating 10 trials
INFO:coremcs.ParameterSet:genTrials: finished generating trials
INFO:coremcs.ParameterSet:getTrial: generating trial for param1
INFO:__main__:Running Application with arguments Namespace(_func=<function <lambda> at 0x6328668>, clearRunDir=True, main_log_level=None, main_verbose=False, modelName='testModel', subcommand='syncdb')
INFO:__main__:Running Application with arguments Namespace(_func=<function <lambda> at 0x1cfecc08>, description='', main_log_level=None, main_verbose=False, modelName='testModel', simId=None, subcommand='genSimulation', trials=10)
INFO:__main__:Generating 10 trials to DB and to '/global/homes/s/sfendell/mcs/run/testModel/sims/s001', using model testModel
WARNING:__main__:No distroFile or paramFile found in directory /global/homes/s/sfendell/mcs/models/testModel/data/
WARNING:__main__:No distroFile or paramFile found in directory /global/homes/s/sfendell/mcs/models/testModel/data/.svn
WARNING:__main__:No distroFile or paramFile found in directory /global/homes/s/sfendell/mcs/models/testModel/data/.svn/text-base
WARNING:__main__:No distroFile or paramFile found in directory /global/homes/s/sfendell/mcs/models/testModel/data/.svn/prop-base
WARNING:__main__:No distroFile or paramFile found in directory /global/homes/s/sfendell/mcs/models/testModel/data/.svn/props
WARNING:__main__:No distroFile or paramFile found in directory /global/homes/s/sfendell/mcs/models/testModel/data/.svn/tmp
WARNING:__main__:No distroFile or paramFile found in directory /global/homes/s/sfendell/mcs/models/testModel/data/.svn/tmp/text-base
WARNING:__main__:No distroFile or paramFile found in directory /global/homes/s/sfendell/mcs/models/testModel/data/.svn/tmp/prop-base
WARNING:__main__:No distroFile or paramFile found in directory /global/homes/s/sfendell/mcs/models/testModel/data/.svn/tmp/props
WARNING:__main__:No distroFile or paramFile found in directory /global/homes/s/sfendell/mcs/models/testModel/data/submodelA/.svn
WARNING:__main__:No distroFile or paramFile found in directory /global/homes/s/sfendell/mcs/models/testModel/data/submodelA/.svn/text-base
WARNING:__main__:No distroFile or paramFile found in directory /global/homes/s/sfendell/mcs/models/testModel/data/submodelA/.svn/prop-base
WARNING:__main__:No distroFile or paramFile found in directory /global/homes/s/sfendell/mcs/models/testModel/data/submodelA/.svn/props
WARNING:__main__:No distroFile or paramFile found in directory /global/homes/s/sfendell/mcs/models/testModel/data/submodelA/.svn/tmp
WARNING:__main__:No distroFile or paramFile found in directory /global/homes/s/sfendell/mcs/models/testModel/data/submodelA/.svn/tmp/text-base
WARNING:__main__:No distroFile or paramFile found in directory /global/homes/s/sfendell/mcs/models/testModel/data/submodelA/.svn/tmp/prop-base
WARNING:__main__:No distroFile or paramFile found in directory /global/homes/s/sfendell/mcs/models/testModel/data/submodelA/.svn/tmp/props
WARNING:__main__:No distroFile or paramFile found in directory /global/homes/s/sfendell/mcs/models/testModel/data/submodelB/.svn
WARNING:__main__:No distroFile or paramFile found in directory /global/homes/s/sfendell/mcs/models/testModel/data/submodelB/.svn/text-base
WARNING:__main__:No distroFile or paramFile found in directory /global/homes/s/sfendell/mcs/models/testModel/data/submodelB/.svn/prop-base
WARNING:__main__:No distroFile or paramFile found in directory /global/homes/s/sfendell/mcs/models/testModel/data/submodelB/.svn/props
WARNING:__main__:No distroFile or paramFile found in directory /global/homes/s/sfendell/mcs/models/testModel/data/submodelB/.svn/tmp
WARNING:__main__:No distroFile or paramFile found in directory /global/homes/s/sfendell/mcs/models/testModel/data/submodelB/.svn/tmp/text-base
WARNING:__main__:No distroFile or paramFile found in directory /global/homes/s/sfendell/mcs/models/testModel/data/submodelB/.svn/tmp/prop-base
WARNING:__main__:No distroFile or paramFile found in directory /global/homes/s/sfendell/mcs/models/testModel/data/submodelB/.svn/tmp/props
INFO:coremcs.Distro:Reading in file /global/homes/s/sfendell/mcs/models/testModel/data/submodelA/modelAdistros.distro
INFO:coremcs.ParameterSet:Suppressing correlations as per config file
INFO:__main__:Generating simulation for model testModel using param and distro files:
   modelAparams.param
  modelAdistros.distro
INFO:coremcs.ParameterSet:genTrials: generating 10 trials
INFO:coremcs.ParameterSet:genTrials: finished generating trials
INFO:coremcs.ParameterSet:getTrial: generating trial for param1
INFO:__main__:Running Application with arguments Namespace(_func=<function <lambda> at 0x12d44c08>, description='', main_log_level=None, main_verbose=False, modelName='testModel', simId=None, subcommand='genSimulation', trials=10)
INFO:__main__:Generating 10 trials to DB and to '/global/homes/s/sfendell/mcs/run/testModel/sims/s002', using model testModel
WARNING:__main__:No distroFile or paramFile found in directory /global/homes/s/sfendell/mcs/models/testModel/data/
WARNING:__main__:No distroFile or paramFile found in directory /global/homes/s/sfendell/mcs/models/testModel/data/.svn
WARNING:__main__:No distroFile or paramFile found in directory /global/homes/s/sfendell/mcs/models/testModel/data/.svn/text-base
WARNING:__main__:No distroFile or paramFile found in directory /global/homes/s/sfendell/mcs/models/testModel/data/.svn/prop-base
WARNING:__main__:No distroFile or paramFile found in directory /global/homes/s/sfendell/mcs/models/testModel/data/.svn/props
WARNING:__main__:No distroFile or paramFile found in directory /global/homes/s/sfendell/mcs/models/testModel/data/.svn/tmp
WARNING:__main__:No distroFile or paramFile found in directory /global/homes/s/sfendell/mcs/models/testModel/data/.svn/tmp/text-base
WARNING:__main__:No distroFile or paramFile found in directory /global/homes/s/sfendell/mcs/models/testModel/data/.svn/tmp/prop-base
WARNING:__main__:No distroFile or paramFile found in directory /global/homes/s/sfendell/mcs/models/testModel/data/.svn/tmp/props
WARNING:__main__:No distroFile or paramFile found in directory /global/homes/s/sfendell/mcs/models/testModel/data/submodelA/.svn
WARNING:__main__:No distroFile or paramFile found in directory /global/homes/s/sfendell/mcs/models/testModel/data/submodelA/.svn/text-base
WARNING:__main__:No distroFile or paramFile found in directory /global/homes/s/sfendell/mcs/models/testModel/data/submodelA/.svn/prop-base
WARNING:__main__:No distroFile or paramFile found in directory /global/homes/s/sfendell/mcs/models/testModel/data/submodelA/.svn/props
WARNING:__main__:No distroFile or paramFile found in directory /global/homes/s/sfendell/mcs/models/testModel/data/submodelA/.svn/tmp
WARNING:__main__:No distroFile or paramFile found in directory /global/homes/s/sfendell/mcs/models/testModel/data/submodelA/.svn/tmp/text-base
WARNING:__main__:No distroFile or paramFile found in directory /global/homes/s/sfendell/mcs/models/testModel/data/submodelA/.svn/tmp/prop-base
WARNING:__main__:No distroFile or paramFile found in directory /global/homes/s/sfendell/mcs/models/testModel/data/submodelA/.svn/tmp/props
WARNING:__main__:No distroFile or paramFile found in directory /global/homes/s/sfendell/mcs/models/testModel/data/submodelB/.svn
WARNING:__main__:No distroFile or paramFile found in directory /global/homes/s/sfendell/mcs/models/testModel/data/submodelB/.svn/text-base
WARNING:__main__:No distroFile or paramFile found in directory /global/homes/s/sfendell/mcs/models/testModel/data/submodelB/.svn/prop-base
WARNING:__main__:No distroFile or paramFile found in directory /global/homes/s/sfendell/mcs/models/testModel/data/submodelB/.svn/props
WARNING:__main__:No distroFile or paramFile found in directory /global/homes/s/sfendell/mcs/models/testModel/data/submodelB/.svn/tmp
WARNING:__main__:No distroFile or paramFile found in directory /global/homes/s/sfendell/mcs/models/testModel/data/submodelB/.svn/tmp/text-base
WARNING:__main__:No distroFile or paramFile found in directory /global/homes/s/sfendell/mcs/models/testModel/data/submodelB/.svn/tmp/prop-base
WARNING:__main__:No distroFile or paramFile found in directory /global/homes/s/sfendell/mcs/models/testModel/data/submodelB/.svn/tmp/props
INFO:coremcs.Distro:Reading in file /global/homes/s/sfendell/mcs/models/testModel/data/submodelA/modelAdistros.distro
INFO:coremcs.ParameterSet:Suppressing correlations as per config file
INFO:__main__:Generating simulation for model testModel using param and distro files:
   modelAparams.param
  modelAdistros.distro
INFO:coremcs.ParameterSet:genTrials: generating 10 trials
INFO:coremcs.ParameterSet:genTrials: finished generating trials
INFO:coremcs.ParameterSet:getTrial: generating trial for param1
INFO:__main__:Running Application with arguments Namespace(_func=<function <lambda> at 0x15b0f668>, clearRunDir=True, main_log_level=None, main_verbose=False, modelName='testModel', subcommand='syncdb')
INFO:__main__:Running Application with arguments Namespace(_func=<function <lambda> at 0xd8a0c08>, description='', main_log_level=None, main_verbose=False, modelName='testModel', simId=None, subcommand='genSimulation', trials=10)
INFO:__main__:Generating 10 trials to DB and to '/global/homes/s/sfendell/mcs/run/testModel/sims/s001', using model testModel
WARNING:__main__:No distroFile or paramFile found in directory /global/homes/s/sfendell/mcs/models/testModel/data/
WARNING:__main__:No distroFile or paramFile found in directory /global/homes/s/sfendell/mcs/models/testModel/data/.svn
WARNING:__main__:No distroFile or paramFile found in directory /global/homes/s/sfendell/mcs/models/testModel/data/.svn/text-base
WARNING:__main__:No distroFile or paramFile found in directory /global/homes/s/sfendell/mcs/models/testModel/data/.svn/prop-base
WARNING:__main__:No distroFile or paramFile found in directory /global/homes/s/sfendell/mcs/models/testModel/data/.svn/props
WARNING:__main__:No distroFile or paramFile found in directory /global/homes/s/sfendell/mcs/models/testModel/data/.svn/tmp
WARNING:__main__:No distroFile or paramFile found in directory /global/homes/s/sfendell/mcs/models/testModel/data/.svn/tmp/text-base
WARNING:__main__:No distroFile or paramFile found in directory /global/homes/s/sfendell/mcs/models/testModel/data/.svn/tmp/prop-base
WARNING:__main__:No distroFile or paramFile found in directory /global/homes/s/sfendell/mcs/models/testModel/data/.svn/tmp/props
WARNING:__main__:No distroFile or paramFile found in directory /global/homes/s/sfendell/mcs/models/testModel/data/submodelA/.svn
WARNING:__main__:No distroFile or paramFile found in directory /global/homes/s/sfendell/mcs/models/testModel/data/submodelA/.svn/text-base
WARNING:__main__:No distroFile or paramFile found in directory /global/homes/s/sfendell/mcs/models/testModel/data/submodelA/.svn/prop-base
WARNING:__main__:No distroFile or paramFile found in directory /global/homes/s/sfendell/mcs/models/testModel/data/submodelA/.svn/props
WARNING:__main__:No distroFile or paramFile found in directory /global/homes/s/sfendell/mcs/models/testModel/data/submodelA/.svn/tmp
WARNING:__main__:No distroFile or paramFile found in directory /global/homes/s/sfendell/mcs/models/testModel/data/submodelA/.svn/tmp/text-base
WARNING:__main__:No distroFile or paramFile found in directory /global/homes/s/sfendell/mcs/models/testModel/data/submodelA/.svn/tmp/prop-base
WARNING:__main__:No distroFile or paramFile found in directory /global/homes/s/sfendell/mcs/models/testModel/data/submodelA/.svn/tmp/props
WARNING:__main__:No distroFile or paramFile found in directory /global/homes/s/sfendell/mcs/models/testModel/data/submodelB/.svn
WARNING:__main__:No distroFile or paramFile found in directory /global/homes/s/sfendell/mcs/models/testModel/data/submodelB/.svn/text-base
WARNING:__main__:No distroFile or paramFile found in directory /global/homes/s/sfendell/mcs/models/testModel/data/submodelB/.svn/prop-base
WARNING:__main__:No distroFile or paramFile found in directory /global/homes/s/sfendell/mcs/models/testModel/data/submodelB/.svn/props
WARNING:__main__:No distroFile or paramFile found in directory /global/homes/s/sfendell/mcs/models/testModel/data/submodelB/.svn/tmp
WARNING:__main__:No distroFile or paramFile found in directory /global/homes/s/sfendell/mcs/models/testModel/data/submodelB/.svn/tmp/text-base
WARNING:__main__:No distroFile or paramFile found in directory /global/homes/s/sfendell/mcs/models/testModel/data/submodelB/.svn/tmp/prop-base
WARNING:__main__:No distroFile or paramFile found in directory /global/homes/s/sfendell/mcs/models/testModel/data/submodelB/.svn/tmp/props
INFO:coremcs.Distro:Reading in file /global/homes/s/sfendell/mcs/models/testModel/data/submodelA/modelAdistros.distro
INFO:coremcs.ParameterSet:Suppressing correlations as per config file
INFO:__main__:Generating simulation for model testModel using param and distro files:
   modelAparams.param
  modelAdistros.distro
INFO:coremcs.ParameterSet:genTrials: generating 10 trials
INFO:coremcs.ParameterSet:genTrials: finished generating trials
INFO:coremcs.ParameterSet:getTrial: generating trial for param1
INFO:__main__:Running Application with arguments Namespace(_func=<function <lambda> at 0x15287668>, clearRunDir=True, main_log_level=None, main_verbose=False, modelName='testModel', subcommand='syncdb')
INFO:__main__:Running Application with arguments Namespace(_func=<function <lambda> at 0x1347fc08>, description='', main_log_level=None, main_verbose=False, modelName='testModel', simId=None, subcommand='genSimulation', trials=10)
INFO:__main__:Generating 10 trials to DB and to '/global/homes/s/sfendell/mcs/run/testModel/sims/s001', using model testModel
WARNING:__main__:No distroFile or paramFile found in directory /global/homes/s/sfendell/mcs/models/testModel/data/
WARNING:__main__:No distroFile or paramFile found in directory /global/homes/s/sfendell/mcs/models/testModel/data/.svn
WARNING:__main__:No distroFile or paramFile found in directory /global/homes/s/sfendell/mcs/models/testModel/data/.svn/text-base
WARNING:__main__:No distroFile or paramFile found in directory /global/homes/s/sfendell/mcs/models/testModel/data/.svn/prop-base
WARNING:__main__:No distroFile or paramFile found in directory /global/homes/s/sfendell/mcs/models/testModel/data/.svn/props
WARNING:__main__:No distroFile or paramFile found in directory /global/homes/s/sfendell/mcs/models/testModel/data/.svn/tmp
WARNING:__main__:No distroFile or paramFile found in directory /global/homes/s/sfendell/mcs/models/testModel/data/.svn/tmp/text-base
WARNING:__main__:No distroFile or paramFile found in directory /global/homes/s/sfendell/mcs/models/testModel/data/.svn/tmp/prop-base
WARNING:__main__:No distroFile or paramFile found in directory /global/homes/s/sfendell/mcs/models/testModel/data/.svn/tmp/props
WARNING:__main__:No distroFile or paramFile found in directory /global/homes/s/sfendell/mcs/models/testModel/data/submodelA/.svn
WARNING:__main__:No distroFile or paramFile found in directory /global/homes/s/sfendell/mcs/models/testModel/data/submodelA/.svn/text-base
WARNING:__main__:No distroFile or paramFile found in directory /global/homes/s/sfendell/mcs/models/testModel/data/submodelA/.svn/prop-base
WARNING:__main__:No distroFile or paramFile found in directory /global/homes/s/sfendell/mcs/models/testModel/data/submodelA/.svn/props
WARNING:__main__:No distroFile or paramFile found in directory /global/homes/s/sfendell/mcs/models/testModel/data/submodelA/.svn/tmp
WARNING:__main__:No distroFile or paramFile found in directory /global/homes/s/sfendell/mcs/models/testModel/data/submodelA/.svn/tmp/text-base
WARNING:__main__:No distroFile or paramFile found in directory /global/homes/s/sfendell/mcs/models/testModel/data/submodelA/.svn/tmp/prop-base
WARNING:__main__:No distroFile or paramFile found in directory /global/homes/s/sfendell/mcs/models/testModel/data/submodelA/.svn/tmp/props
WARNING:__main__:No distroFile or paramFile found in directory /global/homes/s/sfendell/mcs/models/testModel/data/submodelB/.svn
WARNING:__main__:No distroFile or paramFile found in directory /global/homes/s/sfendell/mcs/models/testModel/data/submodelB/.svn/text-base
WARNING:__main__:No distroFile or paramFile found in directory /global/homes/s/sfendell/mcs/models/testModel/data/submodelB/.svn/prop-base
WARNING:__main__:No distroFile or paramFile found in directory /global/homes/s/sfendell/mcs/models/testModel/data/submodelB/.svn/props
WARNING:__main__:No distroFile or paramFile found in directory /global/homes/s/sfendell/mcs/models/testModel/data/submodelB/.svn/tmp
WARNING:__main__:No distroFile or paramFile found in directory /global/homes/s/sfendell/mcs/models/testModel/data/submodelB/.svn/tmp/text-base
WARNING:__main__:No distroFile or paramFile found in directory /global/homes/s/sfendell/mcs/models/testModel/data/submodelB/.svn/tmp/prop-base
WARNING:__main__:No distroFile or paramFile found in directory /global/homes/s/sfendell/mcs/models/testModel/data/submodelB/.svn/tmp/props
INFO:coremcs.Distro:Reading in file /global/homes/s/sfendell/mcs/models/testModel/data/submodelA/modelAdistros.distro
INFO:coremcs.ParameterSet:Suppressing correlations as per config file
INFO:__main__:Generating simulation for model testModel using param and distro files:
   modelAparams.param
  modelAdistros.distro
INFO:coremcs.ParameterSet:genTrials: generating 10 trials
INFO:coremcs.ParameterSet:genTrials: finished generating trials
INFO:coremcs.ParameterSet:getTrial: generating trial for param1
INFO:__main__:Running Application with arguments Namespace(_func=<function <lambda> at 0xd1d6c08>, description='', main_log_level=None, main_verbose=False, modelName='testModel', simId=None, subcommand='genSimulation', trials=10)
INFO:__main__:Generating 10 trials to DB and to '/global/homes/s/sfendell/mcs/run/testModel/sims/s002', using model testModel
WARNING:__main__:No distroFile or paramFile found in directory /global/homes/s/sfendell/mcs/models/testModel/data/
WARNING:__main__:No distroFile or paramFile found in directory /global/homes/s/sfendell/mcs/models/testModel/data/.svn
WARNING:__main__:No distroFile or paramFile found in directory /global/homes/s/sfendell/mcs/models/testModel/data/.svn/text-base
WARNING:__main__:No distroFile or paramFile found in directory /global/homes/s/sfendell/mcs/models/testModel/data/.svn/prop-base
WARNING:__main__:No distroFile or paramFile found in directory /global/homes/s/sfendell/mcs/models/testModel/data/.svn/props
WARNING:__main__:No distroFile or paramFile found in directory /global/homes/s/sfendell/mcs/models/testModel/data/.svn/tmp
WARNING:__main__:No distroFile or paramFile found in directory /global/homes/s/sfendell/mcs/models/testModel/data/.svn/tmp/text-base
WARNING:__main__:No distroFile or paramFile found in directory /global/homes/s/sfendell/mcs/models/testModel/data/.svn/tmp/prop-base
WARNING:__main__:No distroFile or paramFile found in directory /global/homes/s/sfendell/mcs/models/testModel/data/.svn/tmp/props
WARNING:__main__:No distroFile or paramFile found in directory /global/homes/s/sfendell/mcs/models/testModel/data/submodelA/.svn
WARNING:__main__:No distroFile or paramFile found in directory /global/homes/s/sfendell/mcs/models/testModel/data/submodelA/.svn/text-base
WARNING:__main__:No distroFile or paramFile found in directory /global/homes/s/sfendell/mcs/models/testModel/data/submodelA/.svn/prop-base
WARNING:__main__:No distroFile or paramFile found in directory /global/homes/s/sfendell/mcs/models/testModel/data/submodelA/.svn/props
WARNING:__main__:No distroFile or paramFile found in directory /global/homes/s/sfendell/mcs/models/testModel/data/submodelA/.svn/tmp
WARNING:__main__:No distroFile or paramFile found in directory /global/homes/s/sfendell/mcs/models/testModel/data/submodelA/.svn/tmp/text-base
WARNING:__main__:No distroFile or paramFile found in directory /global/homes/s/sfendell/mcs/models/testModel/data/submodelA/.svn/tmp/prop-base
WARNING:__main__:No distroFile or paramFile found in directory /global/homes/s/sfendell/mcs/models/testModel/data/submodelA/.svn/tmp/props
WARNING:__main__:No distroFile or paramFile found in directory /global/homes/s/sfendell/mcs/models/testModel/data/submodelB/.svn
WARNING:__main__:No distroFile or paramFile found in directory /global/homes/s/sfendell/mcs/models/testModel/data/submodelB/.svn/text-base
WARNING:__main__:No distroFile or paramFile found in directory /global/homes/s/sfendell/mcs/models/testModel/data/submodelB/.svn/prop-base
WARNING:__main__:No distroFile or paramFile found in directory /global/homes/s/sfendell/mcs/models/testModel/data/submodelB/.svn/props
WARNING:__main__:No distroFile or paramFile found in directory /global/homes/s/sfendell/mcs/models/testModel/data/submodelB/.svn/tmp
WARNING:__main__:No distroFile or paramFile found in directory /global/homes/s/sfendell/mcs/models/testModel/data/submodelB/.svn/tmp/text-base
WARNING:__main__:No distroFile or paramFile found in directory /global/homes/s/sfendell/mcs/models/testModel/data/submodelB/.svn/tmp/prop-base
WARNING:__main__:No distroFile or paramFile found in directory /global/homes/s/sfendell/mcs/models/testModel/data/submodelB/.svn/tmp/props
INFO:coremcs.Distro:Reading in file /global/homes/s/sfendell/mcs/models/testModel/data/submodelA/modelAdistros.distro
INFO:coremcs.ParameterSet:Suppressing correlations as per config file
INFO:__main__:Generating simulation for model testModel using param and distro files:
   modelAparams.param
  modelAdistros.distro
INFO:coremcs.ParameterSet:genTrials: generating 10 trials
INFO:coremcs.ParameterSet:genTrials: finished generating trials
INFO:coremcs.ParameterSet:getTrial: generating trial for param1
INFO:__main__:Running Application with arguments Namespace(_func=<function <lambda> at 0x12c69668>, clearRunDir=True, main_log_level=None, main_verbose=False, modelName='testModel', subcommand='syncdb')
INFO:__main__:Running Application with arguments Namespace(_func=<function <lambda> at 0xa166c08>, description='', main_log_level=None, main_verbose=False, modelName='testModel', simId=None, subcommand='genSimulation', trials=10)
INFO:__main__:Generating 10 trials to DB and to '/global/homes/s/sfendell/mcs/run/testModel/sims/s001', using model testModel
WARNING:__main__:No distroFile or paramFile found in directory /global/homes/s/sfendell/mcs/models/testModel/data/
WARNING:__main__:No distroFile or paramFile found in directory /global/homes/s/sfendell/mcs/models/testModel/data/.svn
WARNING:__main__:No distroFile or paramFile found in directory /global/homes/s/sfendell/mcs/models/testModel/data/.svn/text-base
WARNING:__main__:No distroFile or paramFile found in directory /global/homes/s/sfendell/mcs/models/testModel/data/.svn/prop-base
WARNING:__main__:No distroFile or paramFile found in directory /global/homes/s/sfendell/mcs/models/testModel/data/.svn/props
WARNING:__main__:No distroFile or paramFile found in directory /global/homes/s/sfendell/mcs/models/testModel/data/.svn/tmp
WARNING:__main__:No distroFile or paramFile found in directory /global/homes/s/sfendell/mcs/models/testModel/data/.svn/tmp/text-base
WARNING:__main__:No distroFile or paramFile found in directory /global/homes/s/sfendell/mcs/models/testModel/data/.svn/tmp/prop-base
WARNING:__main__:No distroFile or paramFile found in directory /global/homes/s/sfendell/mcs/models/testModel/data/.svn/tmp/props
WARNING:__main__:No distroFile or paramFile found in directory /global/homes/s/sfendell/mcs/models/testModel/data/submodelA/.svn
WARNING:__main__:No distroFile or paramFile found in directory /global/homes/s/sfendell/mcs/models/testModel/data/submodelA/.svn/text-base
WARNING:__main__:No distroFile or paramFile found in directory /global/homes/s/sfendell/mcs/models/testModel/data/submodelA/.svn/prop-base
WARNING:__main__:No distroFile or paramFile found in directory /global/homes/s/sfendell/mcs/models/testModel/data/submodelA/.svn/props
WARNING:__main__:No distroFile or paramFile found in directory /global/homes/s/sfendell/mcs/models/testModel/data/submodelA/.svn/tmp
WARNING:__main__:No distroFile or paramFile found in directory /global/homes/s/sfendell/mcs/models/testModel/data/submodelA/.svn/tmp/text-base
WARNING:__main__:No distroFile or paramFile found in directory /global/homes/s/sfendell/mcs/models/testModel/data/submodelA/.svn/tmp/prop-base
WARNING:__main__:No distroFile or paramFile found in directory /global/homes/s/sfendell/mcs/models/testModel/data/submodelA/.svn/tmp/props
WARNING:__main__:No distroFile or paramFile found in directory /global/homes/s/sfendell/mcs/models/testModel/data/submodelB/.svn
WARNING:__main__:No distroFile or paramFile found in directory /global/homes/s/sfendell/mcs/models/testModel/data/submodelB/.svn/text-base
WARNING:__main__:No distroFile or paramFile found in directory /global/homes/s/sfendell/mcs/models/testModel/data/submodelB/.svn/prop-base
WARNING:__main__:No distroFile or paramFile found in directory /global/homes/s/sfendell/mcs/models/testModel/data/submodelB/.svn/props
WARNING:__main__:No distroFile or paramFile found in directory /global/homes/s/sfendell/mcs/models/testModel/data/submodelB/.svn/tmp
WARNING:__main__:No distroFile or paramFile found in directory /global/homes/s/sfendell/mcs/models/testModel/data/submodelB/.svn/tmp/text-base
WARNING:__main__:No distroFile or paramFile found in directory /global/homes/s/sfendell/mcs/models/testModel/data/submodelB/.svn/tmp/prop-base
WARNING:__main__:No distroFile or paramFile found in directory /global/homes/s/sfendell/mcs/models/testModel/data/submodelB/.svn/tmp/props
INFO:coremcs.Distro:Reading in file /global/homes/s/sfendell/mcs/models/testModel/data/submodelA/modelAdistros.distro
INFO:coremcs.ParameterSet:Suppressing correlations as per config file
INFO:__main__:Generating simulation for model testModel using param and distro files:
   modelAparams.param
  modelAdistros.distro
INFO:coremcs.ParameterSet:genTrials: generating 10 trials
INFO:coremcs.ParameterSet:genTrials: finished generating trials
INFO:coremcs.ParameterSet:getTrial: generating trial for param1
INFO:__main__:Running Application with arguments Namespace(_func=<function <lambda> at 0x1890f6e0>, clearRunDir=True, main_log_level=None, main_verbose=False, modelName='testModel', subcommand='syncdb')
INFO:__main__:Running Application with arguments Namespace(_func=<function <lambda> at 0x5859c80>, description='', main_log_level=None, main_verbose=False, modelName='testModel', simId=None, subcommand='genSimulation', trials=10)
INFO:__main__:Generating 10 trials to DB and to '/global/homes/s/sfendell/mcs/run/testModel/sims/s001', using model testModel
WARNING:__main__:No distroFile or paramFile found in directory /global/homes/s/sfendell/mcs/models/testModel/data/
WARNING:__main__:No distroFile or paramFile found in directory /global/homes/s/sfendell/mcs/models/testModel/data/.svn
WARNING:__main__:No distroFile or paramFile found in directory /global/homes/s/sfendell/mcs/models/testModel/data/.svn/text-base
WARNING:__main__:No distroFile or paramFile found in directory /global/homes/s/sfendell/mcs/models/testModel/data/.svn/prop-base
WARNING:__main__:No distroFile or paramFile found in directory /global/homes/s/sfendell/mcs/models/testModel/data/.svn/props
WARNING:__main__:No distroFile or paramFile found in directory /global/homes/s/sfendell/mcs/models/testModel/data/.svn/tmp
WARNING:__main__:No distroFile or paramFile found in directory /global/homes/s/sfendell/mcs/models/testModel/data/.svn/tmp/text-base
WARNING:__main__:No distroFile or paramFile found in directory /global/homes/s/sfendell/mcs/models/testModel/data/.svn/tmp/prop-base
WARNING:__main__:No distroFile or paramFile found in directory /global/homes/s/sfendell/mcs/models/testModel/data/.svn/tmp/props
WARNING:__main__:No distroFile or paramFile found in directory /global/homes/s/sfendell/mcs/models/testModel/data/submodelA/.svn
WARNING:__main__:No distroFile or paramFile found in directory /global/homes/s/sfendell/mcs/models/testModel/data/submodelA/.svn/text-base
WARNING:__main__:No distroFile or paramFile found in directory /global/homes/s/sfendell/mcs/models/testModel/data/submodelA/.svn/prop-base
WARNING:__main__:No distroFile or paramFile found in directory /global/homes/s/sfendell/mcs/models/testModel/data/submodelA/.svn/props
WARNING:__main__:No distroFile or paramFile found in directory /global/homes/s/sfendell/mcs/models/testModel/data/submodelA/.svn/tmp
WARNING:__main__:No distroFile or paramFile found in directory /global/homes/s/sfendell/mcs/models/testModel/data/submodelA/.svn/tmp/text-base
WARNING:__main__:No distroFile or paramFile found in directory /global/homes/s/sfendell/mcs/models/testModel/data/submodelA/.svn/tmp/prop-base
WARNING:__main__:No distroFile or paramFile found in directory /global/homes/s/sfendell/mcs/models/testModel/data/submodelA/.svn/tmp/props
WARNING:__main__:No distroFile or paramFile found in directory /global/homes/s/sfendell/mcs/models/testModel/data/submodelB/.svn
WARNING:__main__:No distroFile or paramFile found in directory /global/homes/s/sfendell/mcs/models/testModel/data/submodelB/.svn/text-base
WARNING:__main__:No distroFile or paramFile found in directory /global/homes/s/sfendell/mcs/models/testModel/data/submodelB/.svn/prop-base
WARNING:__main__:No distroFile or paramFile found in directory /global/homes/s/sfendell/mcs/models/testModel/data/submodelB/.svn/props
WARNING:__main__:No distroFile or paramFile found in directory /global/homes/s/sfendell/mcs/models/testModel/data/submodelB/.svn/tmp
WARNING:__main__:No distroFile or paramFile found in directory /global/homes/s/sfendell/mcs/models/testModel/data/submodelB/.svn/tmp/text-base
WARNING:__main__:No distroFile or paramFile found in directory /global/homes/s/sfendell/mcs/models/testModel/data/submodelB/.svn/tmp/prop-base
WARNING:__main__:No distroFile or paramFile found in directory /global/homes/s/sfendell/mcs/models/testModel/data/submodelB/.svn/tmp/props
INFO:coremcs.Distro:Reading in file /global/homes/s/sfendell/mcs/models/testModel/data/submodelA/modelAdistros.distro
INFO:coremcs.ParameterSet:Suppressing correlations as per config file
INFO:__main__:Generating simulation for model testModel using param and distro files:
   modelAparams.param
  modelAdistros.distro
INFO:coremcs.ParameterSet:genTrials: generating 10 trials
INFO:coremcs.ParameterSet:genTrials: finished generating trials
INFO:coremcs.ParameterSet:getTrial: generating trial for param1
INFO:coremcs.ParameterSet:getTrial: generating trial for param1
INFO:__main__:Running Application with arguments Namespace(_func=<function <lambda> at 0xf515c80>, description='', main_log_level=None, main_verbose=False, modelName='testModel', simId=None, subcommand='genSimulation', trials=10)
INFO:__main__:Generating 10 trials to DB and to '/global/homes/s/sfendell/mcs/run/testModel/sims/s002', using model testModel
WARNING:__main__:No distroFile or paramFile found in directory /global/homes/s/sfendell/mcs/models/testModel/data/
WARNING:__main__:No distroFile or paramFile found in directory /global/homes/s/sfendell/mcs/models/testModel/data/.svn
WARNING:__main__:No distroFile or paramFile found in directory /global/homes/s/sfendell/mcs/models/testModel/data/.svn/text-base
WARNING:__main__:No distroFile or paramFile found in directory /global/homes/s/sfendell/mcs/models/testModel/data/.svn/prop-base
WARNING:__main__:No distroFile or paramFile found in directory /global/homes/s/sfendell/mcs/models/testModel/data/.svn/props
WARNING:__main__:No distroFile or paramFile found in directory /global/homes/s/sfendell/mcs/models/testModel/data/.svn/tmp
WARNING:__main__:No distroFile or paramFile found in directory /global/homes/s/sfendell/mcs/models/testModel/data/.svn/tmp/text-base
WARNING:__main__:No distroFile or paramFile found in directory /global/homes/s/sfendell/mcs/models/testModel/data/.svn/tmp/prop-base
WARNING:__main__:No distroFile or paramFile found in directory /global/homes/s/sfendell/mcs/models/testModel/data/.svn/tmp/props
WARNING:__main__:No distroFile or paramFile found in directory /global/homes/s/sfendell/mcs/models/testModel/data/submodelA/.svn
WARNING:__main__:No distroFile or paramFile found in directory /global/homes/s/sfendell/mcs/models/testModel/data/submodelA/.svn/text-base
WARNING:__main__:No distroFile or paramFile found in directory /global/homes/s/sfendell/mcs/models/testModel/data/submodelA/.svn/prop-base
WARNING:__main__:No distroFile or paramFile found in directory /global/homes/s/sfendell/mcs/models/testModel/data/submodelA/.svn/props
WARNING:__main__:No distroFile or paramFile found in directory /global/homes/s/sfendell/mcs/models/testModel/data/submodelA/.svn/tmp
WARNING:__main__:No distroFile or paramFile found in directory /global/homes/s/sfendell/mcs/models/testModel/data/submodelA/.svn/tmp/text-base
WARNING:__main__:No distroFile or paramFile found in directory /global/homes/s/sfendell/mcs/models/testModel/data/submodelA/.svn/tmp/prop-base
WARNING:__main__:No distroFile or paramFile found in directory /global/homes/s/sfendell/mcs/models/testModel/data/submodelA/.svn/tmp/props
WARNING:__main__:No distroFile or paramFile found in directory /global/homes/s/sfendell/mcs/models/testModel/data/submodelB/.svn
WARNING:__main__:No distroFile or paramFile found in directory /global/homes/s/sfendell/mcs/models/testModel/data/submodelB/.svn/text-base
WARNING:__main__:No distroFile or paramFile found in directory /global/homes/s/sfendell/mcs/models/testModel/data/submodelB/.svn/prop-base
WARNING:__main__:No distroFile or paramFile found in directory /global/homes/s/sfendell/mcs/models/testModel/data/submodelB/.svn/props
WARNING:__main__:No distroFile or paramFile found in directory /global/homes/s/sfendell/mcs/models/testModel/data/submodelB/.svn/tmp
WARNING:__main__:No distroFile or paramFile found in directory /global/homes/s/sfendell/mcs/models/testModel/data/submodelB/.svn/tmp/text-base
WARNING:__main__:No distroFile or paramFile found in directory /global/homes/s/sfendell/mcs/models/testModel/data/submodelB/.svn/tmp/prop-base
WARNING:__main__:No distroFile or paramFile found in directory /global/homes/s/sfendell/mcs/models/testModel/data/submodelB/.svn/tmp/props
INFO:coremcs.Distro:Reading in file /global/homes/s/sfendell/mcs/models/testModel/data/submodelA/modelAdistros.distro
INFO:coremcs.ParameterSet:Suppressing correlations as per config file
INFO:__main__:Generating simulation for model testModel using param and distro files:
   modelAparams.param
  modelAdistros.distro
INFO:coremcs.ParameterSet:genTrials: generating 10 trials
INFO:coremcs.ParameterSet:genTrials: finished generating trials
INFO:coremcs.ParameterSet:getTrial: generating trial for param1
INFO:coremcs.ParameterSet:getTrial: generating trial for param1
INFO:coremcs.ParameterSet:getTrial: generating trial for param1
INFO:coremcs.ParameterSet:getTrial: generating trial for param1
INFO:coremcs.ParameterSet:getTrial: generating trial for param1
INFO:coremcs.ParameterSet:getTrial: generating trial for param1
INFO:coremcs.ParameterSet:getTrial: generating trial for param1
INFO:coremcs.ParameterSet:getTrial: generating trial for param1
INFO:coremcs.ParameterSet:getTrial: generating trial for param1
INFO:coremcs.ParameterSet:getTrial: generating trial for param1
INFO:coremcs.Distro:Reading in file /global/homes/s/sfendell/mcs/models/testModel/data/submodelB/modelBdistros.distro
INFO:coremcs.ParameterSet:Suppressing correlations as per config file
INFO:__main__:Generating simulation for model testModel using param and distro files:
   modelBparams.param
  modelBdistros.distro
INFO:coremcs.ParameterSet:genTrials: generating 10 trials
INFO:coremcs.ParameterSet:genTrials: finished generating trials
INFO:coremcs.ParameterSet:getTrial: generating trial for paramB
INFO:coremcs.ParameterSet:getTrial: generating trial for paramB
INFO:coremcs.ParameterSet:getTrial: generating trial for paramB
INFO:coremcs.ParameterSet:getTrial: generating trial for paramB
INFO:coremcs.ParameterSet:getTrial: generating trial for paramB
INFO:coremcs.ParameterSet:getTrial: generating trial for paramB
INFO:coremcs.ParameterSet:getTrial: generating trial for paramB
INFO:coremcs.ParameterSet:getTrial: generating trial for paramB
INFO:coremcs.ParameterSet:getTrial: generating trial for paramB
INFO:coremcs.ParameterSet:getTrial: generating trial for paramB
INFO:__main__:Running Application with arguments Namespace(_func=<function <lambda> at 0x118589b0>, expList=['newExpName'], main_log_level=None, main_verbose=False, minutesPerTask=None, modelName='testModel', programArgs=None, queueLimit=None, redoFailures=False, runLocal=False, simId=1, subcommand='queue', trials=None)
INFO:__main__:runLocal is: False
INFO:__main__:[0001] qsub -q serial -l walltime=00:30:00,gres=gscratch -m n -N newExpName-s01-0-1 -j eo -e /global/homes/s/sfendell/mcs/run/testModel/log/newExpName-s01-0-1.err -v mcs_model=testModel,mcs_simid=1,mcs_trials=0-1,mcs_expname=newExpName,mcs_args=-s 1 /global/homes/s/sfendell/ilucmc/coremcs/Runner.py
INFO:__main__:Executing qsub command.
INFO:__main__:[0002] qsub -q serial -l walltime=00:30:00,gres=gscratch -m n -N newExpName-s01-2-3 -j eo -e /global/homes/s/sfendell/mcs/run/testModel/log/newExpName-s01-2-3.err -v mcs_model=testModel,mcs_simid=1,mcs_trials=2-3,mcs_expname=newExpName,mcs_args=-s 1 /global/homes/s/sfendell/ilucmc/coremcs/Runner.py
INFO:__main__:Executing qsub command.
INFO:__main__:[0003] qsub -q serial -l walltime=00:30:00,gres=gscratch -m n -N newExpName-s01-4-5 -j eo -e /global/homes/s/sfendell/mcs/run/testModel/log/newExpName-s01-4-5.err -v mcs_model=testModel,mcs_simid=1,mcs_trials=4-5,mcs_expname=newExpName,mcs_args=-s 1 /global/homes/s/sfendell/ilucmc/coremcs/Runner.py
INFO:__main__:Executing qsub command.
INFO:__main__:[0004] qsub -q serial -l walltime=00:30:00,gres=gscratch -m n -N newExpName-s01-6-7 -j eo -e /global/homes/s/sfendell/mcs/run/testModel/log/newExpName-s01-6-7.err -v mcs_model=testModel,mcs_simid=1,mcs_trials=6-7,mcs_expname=newExpName,mcs_args=-s 1 /global/homes/s/sfendell/ilucmc/coremcs/Runner.py
INFO:__main__:Executing qsub command.
INFO:__main__:[0005] qsub -q serial -l walltime=00:30:00,gres=gscratch -m n -N newExpName-s01-8-9 -j eo -e /global/homes/s/sfendell/mcs/run/testModel/log/newExpName-s01-8-9.err -v mcs_model=testModel,mcs_simid=1,mcs_trials=8-9,mcs_expname=newExpName,mcs_args=-s 1 /global/homes/s/sfendell/ilucmc/coremcs/Runner.py
INFO:__main__:Executing qsub command.
INFO:__main__:runDir is /global/homes/s/sfendell/mcs/run/testModel/sims/s001/000/002/newExpName
INFO:__main__:runDir is /global/homes/s/sfendell/mcs/run/testModel/sims/s001/000/006/newExpName
INFO:__main__:runDir is /global/homes/s/sfendell/mcs/run/testModel/sims/s001/000/000/newExpName
INFO:__main__:runDir is /global/homes/s/sfendell/mcs/run/testModel/sims/s001/000/008/newExpName
INFO:__main__:runDir is /global/homes/s/sfendell/mcs/run/testModel/sims/s001/000/004/newExpName
INFO:__main__:Finished runId 7 with status 1
INFO:__main__:runDir is /global/homes/s/sfendell/mcs/run/testModel/sims/s001/000/007/newExpName
INFO:__main__:Finished runId 1 with status 1
INFO:__main__:Finished runId 9 with status 1
INFO:__main__:runDir is /global/homes/s/sfendell/mcs/run/testModel/sims/s001/000/001/newExpName
INFO:__main__:Finished runId 3 with status 1
INFO:__main__:runDir is /global/homes/s/sfendell/mcs/run/testModel/sims/s001/000/003/newExpName
INFO:__main__:runDir is /global/homes/s/sfendell/mcs/run/testModel/sims/s001/000/009/newExpName
INFO:__main__:Finished runId 5 with status 1
INFO:__main__:runDir is /global/homes/s/sfendell/mcs/run/testModel/sims/s001/000/005/newExpName
INFO:__main__:Finished runId 8 with status 1
CRITICAL:__main__:/global/homes/s/sfendell/mcs/run/testModel/bin/testModel.py: exiting with status 0
INFO:__main__:Finished runId 2 with status 1
CRITICAL:__main__:/global/homes/s/sfendell/mcs/run/testModel/bin/testModel.py: exiting with status 0
INFO:__main__:Finished runId 10 with status 1
CRITICAL:__main__:/global/homes/s/sfendell/mcs/run/testModel/bin/testModel.py: exiting with status 0
INFO:__main__:Finished runId 4 with status 1
CRITICAL:__main__:/global/homes/s/sfendell/mcs/run/testModel/bin/testModel.py: exiting with status 0
INFO:__main__:Finished runId 6 with status 1
CRITICAL:__main__:/global/homes/s/sfendell/mcs/run/testModel/bin/testModel.py: exiting with status 0
INFO:__main__:Running Application with arguments Namespace(_func=<function _analyze at 0x1031eaa0>, convergence=False, expName='newExpName', groups=False, importance=False, limit=-1, main_log_level=None, main_verbose=False, modelName='testModel', plot=False, plotInputs=True, resultName='param1', simId=1, stats=False, subcommand='analyze')
INFO:coremcs.Analysis:0 parameter values for submodelA
INFO:coremcs.Analysis:Each trial has 0 parameters
INFO:coremcs.Analysis:0 parameter values for submodelB
INFO:coremcs.Analysis:Each trial has 0 parameters
INFO:__main__:Running Application with arguments Namespace(_func=<function _analyze at 0xd81aaa0>, convergence=False, expName='newExpName', groups=False, importance=False, limit=-1, main_log_level=None, main_verbose=False, modelName='testModel', plot=True, plotInputs=False, resultName='param1', simId=1, stats=False, subcommand='analyze')
INFO:__main__:Running Application with arguments Namespace(_func=<function <lambda> at 0x18744668>, clearRunDir=True, main_log_level=None, main_verbose=False, modelName='testModel', subcommand='syncdb')
INFO:__main__:Running Application with arguments Namespace(_func=<function <lambda> at 0x1f45cc08>, description='', main_log_level=None, main_verbose=False, modelName='testModel', simId=None, subcommand='genSimulation', trials=15)
INFO:__main__:Generating 15 trials to DB and to '/global/homes/s/sfendell/mcs/run/testModel/sims/s001', using model testModel
WARNING:__main__:No distroFile or paramFile found in directory /global/homes/s/sfendell/mcs/models/testModel/data/
WARNING:__main__:No distroFile or paramFile found in directory /global/homes/s/sfendell/mcs/models/testModel/data/.svn
WARNING:__main__:No distroFile or paramFile found in directory /global/homes/s/sfendell/mcs/models/testModel/data/.svn/text-base
WARNING:__main__:No distroFile or paramFile found in directory /global/homes/s/sfendell/mcs/models/testModel/data/.svn/prop-base
WARNING:__main__:No distroFile or paramFile found in directory /global/homes/s/sfendell/mcs/models/testModel/data/.svn/props
WARNING:__main__:No distroFile or paramFile found in directory /global/homes/s/sfendell/mcs/models/testModel/data/.svn/tmp
WARNING:__main__:No distroFile or paramFile found in directory /global/homes/s/sfendell/mcs/models/testModel/data/.svn/tmp/text-base
WARNING:__main__:No distroFile or paramFile found in directory /global/homes/s/sfendell/mcs/models/testModel/data/.svn/tmp/prop-base
WARNING:__main__:No distroFile or paramFile found in directory /global/homes/s/sfendell/mcs/models/testModel/data/.svn/tmp/props
WARNING:__main__:No distroFile or paramFile found in directory /global/homes/s/sfendell/mcs/models/testModel/data/submodelA/.svn
WARNING:__main__:No distroFile or paramFile found in directory /global/homes/s/sfendell/mcs/models/testModel/data/submodelA/.svn/text-base
WARNING:__main__:No distroFile or paramFile found in directory /global/homes/s/sfendell/mcs/models/testModel/data/submodelA/.svn/prop-base
WARNING:__main__:No distroFile or paramFile found in directory /global/homes/s/sfendell/mcs/models/testModel/data/submodelA/.svn/props
WARNING:__main__:No distroFile or paramFile found in directory /global/homes/s/sfendell/mcs/models/testModel/data/submodelA/.svn/tmp
WARNING:__main__:No distroFile or paramFile found in directory /global/homes/s/sfendell/mcs/models/testModel/data/submodelA/.svn/tmp/text-base
WARNING:__main__:No distroFile or paramFile found in directory /global/homes/s/sfendell/mcs/models/testModel/data/submodelA/.svn/tmp/prop-base
WARNING:__main__:No distroFile or paramFile found in directory /global/homes/s/sfendell/mcs/models/testModel/data/submodelA/.svn/tmp/props
WARNING:__main__:No distroFile or paramFile found in directory /global/homes/s/sfendell/mcs/models/testModel/data/submodelB/.svn
WARNING:__main__:No distroFile or paramFile found in directory /global/homes/s/sfendell/mcs/models/testModel/data/submodelB/.svn/text-base
WARNING:__main__:No distroFile or paramFile found in directory /global/homes/s/sfendell/mcs/models/testModel/data/submodelB/.svn/prop-base
WARNING:__main__:No distroFile or paramFile found in directory /global/homes/s/sfendell/mcs/models/testModel/data/submodelB/.svn/props
WARNING:__main__:No distroFile or paramFile found in directory /global/homes/s/sfendell/mcs/models/testModel/data/submodelB/.svn/tmp
WARNING:__main__:No distroFile or paramFile found in directory /global/homes/s/sfendell/mcs/models/testModel/data/submodelB/.svn/tmp/text-base
WARNING:__main__:No distroFile or paramFile found in directory /global/homes/s/sfendell/mcs/models/testModel/data/submodelB/.svn/tmp/prop-base
WARNING:__main__:No distroFile or paramFile found in directory /global/homes/s/sfendell/mcs/models/testModel/data/submodelB/.svn/tmp/props
INFO:coremcs.Distro:Reading in file /global/homes/s/sfendell/mcs/models/testModel/data/submodelA/modelAdistros.distro
INFO:coremcs.ParameterSet:Suppressing correlations as per config file
INFO:__main__:Generating simulation for model testModel using param and distro files:
   modelAparams.param
  modelAdistros.distro
INFO:coremcs.ParameterSet:genTrials: generating 15 trials
INFO:coremcs.ParameterSet:genTrials: finished generating trials
INFO:coremcs.ParameterSet:getTrial: generating trial for param1
INFO:coremcs.ParameterSet:getTrial: generating trial for param1
INFO:coremcs.ParameterSet:getTrial: generating trial for param1
INFO:coremcs.ParameterSet:getTrial: generating trial for param1
INFO:coremcs.ParameterSet:getTrial: generating trial for param1
INFO:coremcs.ParameterSet:getTrial: generating trial for param1
INFO:coremcs.ParameterSet:getTrial: generating trial for param1
INFO:coremcs.ParameterSet:getTrial: generating trial for param1
INFO:coremcs.ParameterSet:getTrial: generating trial for param1
INFO:coremcs.ParameterSet:getTrial: generating trial for param1
INFO:coremcs.ParameterSet:getTrial: generating trial for param1
INFO:coremcs.ParameterSet:getTrial: generating trial for param1
INFO:coremcs.ParameterSet:getTrial: generating trial for param1
INFO:coremcs.ParameterSet:getTrial: generating trial for param1
INFO:coremcs.ParameterSet:getTrial: generating trial for param1
INFO:coremcs.Distro:Reading in file /global/homes/s/sfendell/mcs/models/testModel/data/submodelB/modelBdistros.distro
INFO:coremcs.ParameterSet:Suppressing correlations as per config file
INFO:__main__:Generating simulation for model testModel using param and distro files:
   modelBparams.param
  modelBdistros.distro
INFO:coremcs.ParameterSet:genTrials: generating 15 trials
INFO:coremcs.ParameterSet:genTrials: finished generating trials
INFO:coremcs.ParameterSet:getTrial: generating trial for paramB
INFO:coremcs.ParameterSet:getTrial: generating trial for paramB
INFO:coremcs.ParameterSet:getTrial: generating trial for paramB
INFO:coremcs.ParameterSet:getTrial: generating trial for paramB
INFO:coremcs.ParameterSet:getTrial: generating trial for paramB
INFO:coremcs.ParameterSet:getTrial: generating trial for paramB
INFO:coremcs.ParameterSet:getTrial: generating trial for paramB
INFO:coremcs.ParameterSet:getTrial: generating trial for paramB
INFO:coremcs.ParameterSet:getTrial: generating trial for paramB
INFO:coremcs.ParameterSet:getTrial: generating trial for paramB
INFO:coremcs.ParameterSet:getTrial: generating trial for paramB
INFO:coremcs.ParameterSet:getTrial: generating trial for paramB
INFO:coremcs.ParameterSet:getTrial: generating trial for paramB
INFO:coremcs.ParameterSet:getTrial: generating trial for paramB
INFO:coremcs.ParameterSet:getTrial: generating trial for paramB
INFO:__main__:Running Application with arguments Namespace(_func=<function <lambda> at 0x73ac938>, expList=['newExpName'], main_log_level=None, main_verbose=False, minutesPerTask=None, modelName='testModel', programArgs=None, queueLimit=None, redoFailures=False, runLocal=False, simId=1, subcommand='queue', trials='1,3,4-9,14')
INFO:__main__:runLocal is: False
INFO:__main__:[0001] qsub -q serial -l walltime=00:30:00,gres=gscratch -m n -N newExpName-s01-1,3 -j eo -e /global/homes/s/sfendell/mcs/run/testModel/log/newExpName-s01-1,3.err -v mcs_model=testModel,mcs_simid=1,mcs_trials=1,3,mcs_expname=newExpName,mcs_args=-s 1 /global/homes/s/sfendell/ilucmc/coremcs/Runner.py
INFO:__main__:Executing qsub command.
INFO:__main__:[0002] qsub -q serial -l walltime=00:30:00,gres=gscratch -m n -N newExpName-s01-4-5 -j eo -e /global/homes/s/sfendell/mcs/run/testModel/log/newExpName-s01-4-5.err -v mcs_model=testModel,mcs_simid=1,mcs_trials=4-5,mcs_expname=newExpName,mcs_args=-s 1 /global/homes/s/sfendell/ilucmc/coremcs/Runner.py
INFO:__main__:Executing qsub command.
INFO:__main__:[0003] qsub -q serial -l walltime=00:30:00,gres=gscratch -m n -N newExpName-s01-6-7 -j eo -e /global/homes/s/sfendell/mcs/run/testModel/log/newExpName-s01-6-7.err -v mcs_model=testModel,mcs_simid=1,mcs_trials=6-7,mcs_expname=newExpName,mcs_args=-s 1 /global/homes/s/sfendell/ilucmc/coremcs/Runner.py
INFO:__main__:Executing qsub command.
INFO:__main__:[0004] qsub -q serial -l walltime=00:30:00,gres=gscratch -m n -N newExpName-s01-8-9 -j eo -e /global/homes/s/sfendell/mcs/run/testModel/log/newExpName-s01-8-9.err -v mcs_model=testModel,mcs_simid=1,mcs_trials=8-9,mcs_expname=newExpName,mcs_args=-s 1 /global/homes/s/sfendell/ilucmc/coremcs/Runner.py
INFO:__main__:Executing qsub command.
INFO:__main__:[0005] qsub -q serial -l walltime=00:15:00,gres=gscratch -m n -N newExpName-s01-14 -j eo -e /global/homes/s/sfendell/mcs/run/testModel/log/newExpName-s01-14.err -v mcs_model=testModel,mcs_simid=1,mcs_trials=14,mcs_expname=newExpName,mcs_args=-s 1 /global/homes/s/sfendell/ilucmc/coremcs/Runner.py
INFO:__main__:Executing qsub command.
INFO:__main__:runDir is /global/homes/s/sfendell/mcs/run/testModel/sims/s001/000/001/newExpName
INFO:__main__:runDir is /global/homes/s/sfendell/mcs/run/testModel/sims/s001/000/004/newExpName
INFO:__main__:runDir is /global/homes/s/sfendell/mcs/run/testModel/sims/s001/000/006/newExpName
INFO:__main__:runDir is /global/homes/s/sfendell/mcs/run/testModel/sims/s001/000/014/newExpName
INFO:__main__:runDir is /global/homes/s/sfendell/mcs/run/testModel/sims/s001/000/008/newExpName
INFO:__main__:Finished runId 3 with status 0
INFO:__main__:Finished runId 1 with status 0
CRITICAL:__main__:/global/homes/s/sfendell/mcs/run/testModel/bin/testModel.py: exiting with status 0
INFO:__main__:runDir is /global/homes/s/sfendell/mcs/run/testModel/sims/s001/000/005/newExpName
INFO:__main__:Finished runId 5 with status 0
INFO:__main__:Finished runId 9 with status 0
CRITICAL:__main__:/global/homes/s/sfendell/mcs/run/testModel/bin/testModel.py: exiting with status 0
INFO:__main__:runDir is /global/homes/s/sfendell/mcs/run/testModel/sims/s001/000/007/newExpName
INFO:__main__:Finished runId 7 with status 0
INFO:__main__:runDir is /global/homes/s/sfendell/mcs/run/testModel/sims/s001/000/009/newExpName
INFO:__main__:Finished runId 4 with status 0
CRITICAL:__main__:/global/homes/s/sfendell/mcs/run/testModel/bin/testModel.py: exiting with status 0
INFO:__main__:Finished runId 6 with status 0
CRITICAL:__main__:/global/homes/s/sfendell/mcs/run/testModel/bin/testModel.py: exiting with status 0
INFO:__main__:Finished runId 8 with status 0
CRITICAL:__main__:/global/homes/s/sfendell/mcs/run/testModel/bin/testModel.py: exiting with status 0
INFO:__main__:Running Application with arguments Namespace(_func=<function <lambda> at 0x1a9185f0>, clearRunDir=True, main_log_level=None, main_verbose=False, modelName='testModel', subcommand='syncdb')
INFO:__main__:Running Application with arguments Namespace(_func=<function <lambda> at 0x210efb90>, description='', main_log_level=None, main_verbose=False, modelName='testModel', simId=None, subcommand='genSimulation', trials=17)
INFO:__main__:Generating 17 trials to DB and to '/global/homes/s/sfendell/mcs/run/testModel/sims/s001', using model testModel
WARNING:__main__:No distroFile or paramFile found in directory /global/homes/s/sfendell/mcs/models/testModel/data/
WARNING:__main__:No distroFile or paramFile found in directory /global/homes/s/sfendell/mcs/models/testModel/data/.svn
WARNING:__main__:No distroFile or paramFile found in directory /global/homes/s/sfendell/mcs/models/testModel/data/.svn/text-base
WARNING:__main__:No distroFile or paramFile found in directory /global/homes/s/sfendell/mcs/models/testModel/data/.svn/prop-base
WARNING:__main__:No distroFile or paramFile found in directory /global/homes/s/sfendell/mcs/models/testModel/data/.svn/props
WARNING:__main__:No distroFile or paramFile found in directory /global/homes/s/sfendell/mcs/models/testModel/data/.svn/tmp
WARNING:__main__:No distroFile or paramFile found in directory /global/homes/s/sfendell/mcs/models/testModel/data/.svn/tmp/text-base
WARNING:__main__:No distroFile or paramFile found in directory /global/homes/s/sfendell/mcs/models/testModel/data/.svn/tmp/prop-base
WARNING:__main__:No distroFile or paramFile found in directory /global/homes/s/sfendell/mcs/models/testModel/data/.svn/tmp/props
WARNING:__main__:No distroFile or paramFile found in directory /global/homes/s/sfendell/mcs/models/testModel/data/submodelA/.svn
WARNING:__main__:No distroFile or paramFile found in directory /global/homes/s/sfendell/mcs/models/testModel/data/submodelA/.svn/text-base
WARNING:__main__:No distroFile or paramFile found in directory /global/homes/s/sfendell/mcs/models/testModel/data/submodelA/.svn/prop-base
WARNING:__main__:No distroFile or paramFile found in directory /global/homes/s/sfendell/mcs/models/testModel/data/submodelA/.svn/props
WARNING:__main__:No distroFile or paramFile found in directory /global/homes/s/sfendell/mcs/models/testModel/data/submodelA/.svn/tmp
WARNING:__main__:No distroFile or paramFile found in directory /global/homes/s/sfendell/mcs/models/testModel/data/submodelA/.svn/tmp/text-base
WARNING:__main__:No distroFile or paramFile found in directory /global/homes/s/sfendell/mcs/models/testModel/data/submodelA/.svn/tmp/prop-base
WARNING:__main__:No distroFile or paramFile found in directory /global/homes/s/sfendell/mcs/models/testModel/data/submodelA/.svn/tmp/props
WARNING:__main__:No distroFile or paramFile found in directory /global/homes/s/sfendell/mcs/models/testModel/data/submodelB/.svn
WARNING:__main__:No distroFile or paramFile found in directory /global/homes/s/sfendell/mcs/models/testModel/data/submodelB/.svn/text-base
WARNING:__main__:No distroFile or paramFile found in directory /global/homes/s/sfendell/mcs/models/testModel/data/submodelB/.svn/prop-base
WARNING:__main__:No distroFile or paramFile found in directory /global/homes/s/sfendell/mcs/models/testModel/data/submodelB/.svn/props
WARNING:__main__:No distroFile or paramFile found in directory /global/homes/s/sfendell/mcs/models/testModel/data/submodelB/.svn/tmp
WARNING:__main__:No distroFile or paramFile found in directory /global/homes/s/sfendell/mcs/models/testModel/data/submodelB/.svn/tmp/text-base
WARNING:__main__:No distroFile or paramFile found in directory /global/homes/s/sfendell/mcs/models/testModel/data/submodelB/.svn/tmp/prop-base
WARNING:__main__:No distroFile or paramFile found in directory /global/homes/s/sfendell/mcs/models/testModel/data/submodelB/.svn/tmp/props
INFO:coremcs.Distro:Reading in file /global/homes/s/sfendell/mcs/models/testModel/data/submodelA/modelAdistros.distro
INFO:coremcs.ParameterSet:Suppressing correlations as per config file
INFO:__main__:Generating simulation for model testModel using param and distro files:
   modelAparams.param
  modelAdistros.distro
INFO:coremcs.ParameterSet:genTrials: generating 17 trials
INFO:coremcs.ParameterSet:genTrials: finished generating trials
INFO:coremcs.ParameterSet:getTrial: generating trial for param1
INFO:coremcs.ParameterSet:getTrial: generating trial for param1
INFO:coremcs.ParameterSet:getTrial: generating trial for param1
INFO:coremcs.ParameterSet:getTrial: generating trial for param1
INFO:coremcs.ParameterSet:getTrial: generating trial for param1
INFO:coremcs.ParameterSet:getTrial: generating trial for param1
INFO:coremcs.ParameterSet:getTrial: generating trial for param1
INFO:coremcs.ParameterSet:getTrial: generating trial for param1
INFO:coremcs.ParameterSet:getTrial: generating trial for param1
INFO:coremcs.ParameterSet:getTrial: generating trial for param1
INFO:coremcs.ParameterSet:getTrial: generating trial for param1
INFO:coremcs.ParameterSet:getTrial: generating trial for param1
INFO:coremcs.ParameterSet:getTrial: generating trial for param1
INFO:coremcs.ParameterSet:getTrial: generating trial for param1
INFO:coremcs.ParameterSet:getTrial: generating trial for param1
INFO:coremcs.ParameterSet:getTrial: generating trial for param1
INFO:coremcs.ParameterSet:getTrial: generating trial for param1
INFO:coremcs.Distro:Reading in file /global/homes/s/sfendell/mcs/models/testModel/data/submodelB/modelBdistros.distro
INFO:coremcs.ParameterSet:Suppressing correlations as per config file
INFO:__main__:Generating simulation for model testModel using param and distro files:
   modelBparams.param
  modelBdistros.distro
INFO:coremcs.ParameterSet:genTrials: generating 17 trials
INFO:coremcs.ParameterSet:genTrials: finished generating trials
INFO:coremcs.ParameterSet:getTrial: generating trial for paramB
INFO:coremcs.ParameterSet:getTrial: generating trial for paramB
INFO:coremcs.ParameterSet:getTrial: generating trial for paramB
INFO:coremcs.ParameterSet:getTrial: generating trial for paramB
INFO:coremcs.ParameterSet:getTrial: generating trial for paramB
INFO:coremcs.ParameterSet:getTrial: generating trial for paramB
INFO:coremcs.ParameterSet:getTrial: generating trial for paramB
INFO:coremcs.ParameterSet:getTrial: generating trial for paramB
INFO:coremcs.ParameterSet:getTrial: generating trial for paramB
INFO:coremcs.ParameterSet:getTrial: generating trial for paramB
INFO:coremcs.ParameterSet:getTrial: generating trial for paramB
INFO:coremcs.ParameterSet:getTrial: generating trial for paramB
INFO:coremcs.ParameterSet:getTrial: generating trial for paramB
INFO:coremcs.ParameterSet:getTrial: generating trial for paramB
INFO:coremcs.ParameterSet:getTrial: generating trial for paramB
INFO:coremcs.ParameterSet:getTrial: generating trial for paramB
INFO:coremcs.ParameterSet:getTrial: generating trial for paramB
INFO:__main__:Running Application with arguments Namespace(_func=<function _analyze at 0xd2b39b0>, convergence=False, expName='newExpName', groups=False, importance=False, limit=-1, main_log_level=None, main_verbose=False, modelName='testModel', plot=False, plotInputs=False, resultName='modelBparameter', simId=1, stats=False, subcommand='analyze')
INFO:__main__:Running Application with arguments Namespace(_func=<function _analyze at 0x1d0119b0>, convergence=False, expName='newExpName', groups=False, importance=False, limit=-1, main_log_level=None, main_verbose=False, modelName='testModel', plot=False, plotInputs=True, resultName='modelBparameter', simId=1, stats=False, subcommand='analyze')
INFO:coremcs.Analysis:0 parameter values for submodelA
INFO:coremcs.Analysis:Each trial has 0 parameters
INFO:coremcs.Analysis:0 parameter values for submodelB
INFO:coremcs.Analysis:Each trial has 0 parameters
INFO:__main__:Running Application with arguments Namespace(_func=<function _analyze at 0xaa339b0>, convergence=False, expName='newExpName', groups=False, importance=False, limit=-1, main_log_level=None, main_verbose=False, modelName='testModel', plot=True, plotInputs=False, resultName='modelBparameter', simId=1, stats=False, subcommand='analyze')
WARNING:coremcs.Analysis:Did not find any results for simId 1, expName newExpName, resultName modelBparameter
WARNING:coremcs.Analysis:Note: simulation id=1 indicates -1 trials but there are only 0 results
WARNING:coremcs.Analysis:The following trials failed: SELECT run."runId" AS "run_runId", run."simId" AS "run_simId", run."expId" AS "run_expId", run."trialNum" AS "run_trialNum", run."startTime" AS "run_startTime", run."endTime" AS "run_endTime", run.duration AS run_duration, run."runStatus" AS "run_runStatus", run."appStatus" AS "run_appStatus" 
FROM run JOIN experiment ON experiment."expId" = run."expId" 
WHERE run."runStatus" < :runStatus_1 AND experiment."expName" IN (:expName_1, :expName_2, :expName_3, :expName_4, :expName_5, :expName_6, :expName_7, :expName_8, :expName_9, :expName_10)
INFO:coremcs.Analysis:0 parameter values for submodelA
INFO:coremcs.Analysis:0 parameter values for submodelB
INFO:coremcs.Analysis:Each trial has 0 parameters
INFO:__main__:Running Application with arguments Namespace(_func=<function <lambda> at 0x1cfa45f0>, clearRunDir=True, main_log_level=None, main_verbose=False, modelName='testModel', subcommand='syncdb')
